<?xml version="1.0" encoding="utf-8"?>
<!-- Generator: Adobe Illustrator 16.0.4, SVG Export Plug-In . SVG Version: 6.00 Build 0)  -->
<!DOCTYPE svg PUBLIC "-//W3C//DTD SVG 1.1//EN" "http://www.w3.org/Graphics/SVG/1.1/DTD/svg11.dtd">
<svg version="1.1" id="Layer_1" xmlns="http://www.w3.org/2000/svg" xmlns:xlink="http://www.w3.org/1999/xlink" x="0px" y="0px"
	 width="32px" height="32px" viewBox="0 0 32 32" enable-background="new 0 0 32 32" xml:space="preserve">
<g>
	<path fill="#231F20" d="M16.001,0.296c-8.675,0-15.706,7.031-15.706,15.705c0,8.672,7.031,15.703,15.706,15.703
		c8.673,0,15.704-7.031,15.704-15.703C31.705,7.327,24.674,0.296,16.001,0.296z M8.76,7.946c0.044-0.162,0.102-0.324,0.176-0.481
		C9.01,7.307,9.096,7.16,9.193,7.024l0.826,0.287c0.082-0.09,0.171-0.171,0.266-0.243l-0.203-0.854
		c0.295-0.172,0.62-0.288,0.958-0.346l0.381,0.787c0.119-0.006,0.239-0.002,0.36,0.015l0.458-0.746
		c0.163,0.042,0.325,0.1,0.481,0.174c0.157,0.074,0.305,0.16,0.442,0.257l-0.287,0.826c0.09,0.082,0.171,0.171,0.243,0.266
		l0.854-0.203c0.171,0.295,0.288,0.62,0.345,0.958l-0.786,0.381c0.006,0.12,0.001,0.239-0.015,0.359l0.747,0.46
		c-0.044,0.162-0.101,0.324-0.176,0.481c-0.074,0.157-0.16,0.304-0.257,0.439l-0.826-0.286c-0.082,0.091-0.17,0.17-0.265,0.244
		l0.204,0.853c-0.297,0.171-0.621,0.288-0.958,0.346l-0.382-0.786c-0.119,0.005-0.239,0.001-0.358-0.016l-0.46,0.748
		c-0.162-0.044-0.324-0.102-0.481-0.176c-0.156-0.074-0.304-0.16-0.441-0.257l0.286-0.826c-0.088-0.082-0.169-0.171-0.243-0.265
		l-0.852,0.202C8.881,9.81,8.764,9.484,8.706,9.146l0.785-0.38c-0.004-0.119,0-0.241,0.017-0.36L8.76,7.946z M9.392,20.056
		L8.414,19.02c-0.195,0.071-0.398,0.126-0.608,0.161l-0.351,1.387c-0.28,0.013-0.565,0.002-0.851-0.038
		c-0.287-0.039-0.565-0.103-0.83-0.189l0.042-1.427c-0.192-0.088-0.375-0.194-0.542-0.316l-1.23,0.734
		c-0.42-0.387-0.769-0.845-1.028-1.353l1.039-0.978c-0.073-0.196-0.127-0.398-0.163-0.608l-1.387-0.351
		c-0.013-0.279,0-0.565,0.039-0.853c0.039-0.286,0.103-0.563,0.189-0.83l1.426,0.044c0.088-0.193,0.193-0.374,0.314-0.543
		l-0.731-1.229c0.385-0.421,0.842-0.771,1.351-1.029l0.978,1.038c0.196-0.073,0.399-0.128,0.608-0.162l0.351-1.387
		c0.28-0.013,0.565,0,0.852,0.039c0.288,0.039,0.564,0.103,0.829,0.189l-0.041,1.426c0.191,0.089,0.374,0.194,0.542,0.316
		l1.23-0.734c0.419,0.385,0.769,0.842,1.026,1.352l-1.036,0.977c0.072,0.195,0.126,0.4,0.161,0.608l1.389,0.351
		c0.012,0.279,0,0.565-0.04,0.853c-0.04,0.285-0.104,0.562-0.189,0.829l-1.426-0.043c-0.089,0.192-0.194,0.375-0.316,0.544
		l0.734,1.23C10.359,19.448,9.899,19.798,9.392,20.056z M27.362,23.008l-1.867-0.852c-0.365,0.365-0.773,0.688-1.217,0.971
		l0.588,1.914c-0.549,0.302-1.139,0.551-1.763,0.739c-0.628,0.188-1.26,0.305-1.89,0.353l-0.72-1.924
		c-0.524,0-1.041-0.06-1.545-0.175l-0.937,1.771c-1.233-0.359-2.379-0.976-3.355-1.81l0.85-1.867
		c-0.364-0.366-0.689-0.773-0.968-1.218l-1.915,0.59c-0.302-0.551-0.552-1.14-0.739-1.764c-0.188-0.629-0.304-1.261-0.354-1.889
		l1.923-0.721c0.002-0.524,0.063-1.042,0.177-1.543l-1.771-0.938c0.358-1.233,0.977-2.378,1.809-3.354l1.87,0.849
		c0.364-0.362,0.771-0.688,1.217-0.967l-0.591-1.915c0.549-0.303,1.139-0.552,1.766-0.74c0.627-0.188,1.258-0.305,1.888-0.353
		l0.72,1.922c0.524,0.002,1.042,0.062,1.544,0.177l0.938-1.771c1.232,0.359,2.378,0.976,3.354,1.811l-0.85,1.867
		c0.363,0.366,0.688,0.772,0.969,1.218l1.915-0.591c0.3,0.55,0.552,1.14,0.738,1.765c0.188,0.628,0.304,1.26,0.353,1.888
		l-1.922,0.72c-0.002,0.525-0.062,1.044-0.176,1.546l1.77,0.937C28.814,20.885,28.197,22.03,27.362,23.008z"/>
	<circle fill="#231F20" cx="11.512" cy="8.675" r="1.155"/>
	<circle fill="#231F20" cx="7.242" cy="15.828" r="1.926"/>
	<circle fill="#231F20" cx="20.517" cy="17.149" r="2.645"/>
	<path fill="#FFC72C" d="M27.578,17.171l1.922-0.72c-0.049-0.628-0.164-1.26-0.353-1.888c-0.187-0.625-0.438-1.215-0.738-1.765
		l-1.915,0.591c-0.28-0.446-0.605-0.852-0.969-1.218l0.85-1.867c-0.977-0.834-2.122-1.452-3.354-1.811l-0.938,1.771
		c-0.502-0.115-1.02-0.175-1.544-0.177l-0.72-1.922c-0.63,0.048-1.261,0.165-1.888,0.353c-0.627,0.188-1.216,0.437-1.766,0.74
		l0.591,1.915c-0.445,0.279-0.853,0.604-1.217,0.967l-1.87-0.849c-0.833,0.976-1.451,2.121-1.809,3.354l1.771,0.938
		c-0.114,0.502-0.175,1.019-0.177,1.543l-1.923,0.721c0.05,0.628,0.165,1.26,0.354,1.889c0.188,0.624,0.438,1.213,0.739,1.764
		l1.915-0.59c0.279,0.444,0.604,0.852,0.968,1.218l-0.85,1.867c0.976,0.834,2.122,1.45,3.355,1.81l0.937-1.771
		c0.504,0.115,1.021,0.175,1.545,0.175l0.72,1.924c0.63-0.048,1.262-0.164,1.89-0.353c0.624-0.188,1.214-0.438,1.763-0.739
		l-0.588-1.914c0.443-0.282,0.852-0.605,1.217-0.971l1.867,0.852c0.835-0.978,1.452-2.123,1.81-3.354l-1.77-0.937
		C27.517,18.215,27.576,17.696,27.578,17.171z M17.983,17.909c-0.419-1.4,0.375-2.873,1.774-3.291
		c1.398-0.421,2.872,0.374,3.292,1.771c0.419,1.399-0.376,2.874-1.773,3.292C19.876,20.103,18.403,19.308,17.983,17.909z"/>
	<path fill="#545B5C" d="M8.706,9.146c0.058,0.338,0.175,0.663,0.346,0.958l0.852-0.202c0.074,0.094,0.154,0.184,0.243,0.265
		l-0.286,0.826c0.138,0.097,0.285,0.184,0.441,0.257c0.157,0.074,0.319,0.132,0.481,0.176l0.46-0.748
		c0.12,0.017,0.24,0.021,0.358,0.016l0.382,0.786c0.337-0.058,0.662-0.175,0.958-0.346l-0.204-0.853
		c0.095-0.073,0.184-0.152,0.265-0.244l0.826,0.286c0.097-0.136,0.184-0.282,0.257-0.439c0.076-0.157,0.132-0.319,0.176-0.481
		l-0.747-0.46c0.016-0.121,0.021-0.24,0.015-0.359l0.786-0.381c-0.057-0.337-0.174-0.663-0.345-0.958l-0.854,0.203
		c-0.072-0.095-0.152-0.185-0.243-0.266l0.287-0.826c-0.137-0.097-0.285-0.184-0.442-0.257c-0.156-0.075-0.318-0.132-0.481-0.174
		L11.781,6.67c-0.121-0.017-0.241-0.021-0.36-0.015L11.04,5.868c-0.338,0.058-0.663,0.174-0.958,0.346l0.203,0.854
		C10.19,7.14,10.101,7.22,10.019,7.311L9.193,7.024C9.096,7.16,9.01,7.307,8.936,7.465C8.862,7.622,8.804,7.784,8.76,7.946
		l0.748,0.46c-0.017,0.119-0.021,0.241-0.017,0.36L8.706,9.146z M10.465,8.183c0.271-0.577,0.96-0.826,1.538-0.554
		c0.578,0.27,0.826,0.959,0.554,1.536c-0.271,0.578-0.958,0.828-1.536,0.555C10.442,9.449,10.195,8.761,10.465,8.183z"/>
	<path fill="#BC8D16" d="M10.327,17.255l1.426,0.043c0.085-0.267,0.149-0.544,0.189-0.829c0.04-0.288,0.052-0.574,0.04-0.853
		l-1.389-0.351c-0.035-0.208-0.089-0.413-0.161-0.608l1.036-0.977c-0.258-0.51-0.607-0.967-1.026-1.352l-1.23,0.734
		c-0.168-0.123-0.351-0.227-0.542-0.316l0.041-1.426c-0.265-0.086-0.542-0.15-0.829-0.189c-0.287-0.039-0.572-0.052-0.852-0.039
		l-0.351,1.387c-0.209,0.034-0.413,0.089-0.608,0.162l-0.978-1.038c-0.508,0.259-0.965,0.608-1.351,1.029l0.731,1.229
		c-0.121,0.169-0.226,0.35-0.314,0.543L2.732,14.36c-0.086,0.266-0.15,0.543-0.189,0.83c-0.039,0.288-0.051,0.574-0.039,0.853
		l1.387,0.351c0.036,0.209,0.09,0.412,0.163,0.608l-1.039,0.978c0.259,0.508,0.607,0.966,1.028,1.353l1.23-0.734
		c0.168,0.122,0.35,0.229,0.542,0.316L5.774,20.34c0.265,0.087,0.542,0.15,0.83,0.189c0.286,0.04,0.571,0.051,0.851,0.038
		l0.351-1.387c0.21-0.035,0.413-0.09,0.608-0.161l0.978,1.036c0.507-0.258,0.967-0.607,1.352-1.026l-0.734-1.23
		C10.132,17.63,10.237,17.447,10.327,17.255z M9.151,16.089c-0.144,1.053-1.115,1.792-2.168,1.648
		c-1.055-0.142-1.794-1.114-1.649-2.168c0.142-1.054,1.112-1.792,2.167-1.65C8.556,14.063,9.294,15.034,9.151,16.089z"/>
</g>
</svg>
