<?xml version="1.0" encoding="utf-8"?>
<!-- Generator: Adobe Illustrator 16.0.4, SVG Export Plug-In . SVG Version: 6.00 Build 0)  -->
<!DOCTYPE svg PUBLIC "-//W3C//DTD SVG 1.1//EN" "http://www.w3.org/Graphics/SVG/1.1/DTD/svg11.dtd">
<svg version="1.1" id="Layer_1" xmlns="http://www.w3.org/2000/svg" xmlns:xlink="http://www.w3.org/1999/xlink" x="0px" y="0px"
	 width="140.25px" height="117px" viewBox="0 0 140.25 117" enable-background="new 0 0 140.25 117" xml:space="preserve">
<g>
	<path d="M116.572,34.105c-0.871,0-1.596,0.637-1.734,1.47h-1.984v-2.541c0.506-0.13,0.883-0.589,0.883-1.136
		c0-0.647-0.527-1.175-1.174-1.175c-0.648,0-1.178,0.526-1.178,1.175c0,0.546,0.375,1.005,0.885,1.136v2.541h-5.562v-2.541
		c0.506-0.13,0.883-0.59,0.883-1.136c0-0.647-0.523-1.175-1.174-1.175c-0.648,0-1.176,0.526-1.176,1.175
		c0,0.546,0.375,1.005,0.883,1.136v2.541h-3.514c-0.125-0.739-0.707-1.321-1.443-1.444v-1.097c0.506-0.13,0.883-0.589,0.883-1.136
		c0-0.647-0.525-1.175-1.174-1.175c-0.646,0-1.176,0.526-1.176,1.175c0,0.546,0.375,1.005,0.883,1.136v1.097
		c-0.834,0.142-1.471,0.864-1.471,1.735c0,0.972,0.791,1.761,1.764,1.761c0.869,0,1.596-0.637,1.734-1.469h7.613v1.415
		c-0.506,0.131-0.881,0.59-0.881,1.137c0,0.647,0.525,1.174,1.174,1.174c0.646,0,1.174-0.526,1.174-1.174
		c0-0.548-0.375-1.007-0.883-1.137v-1.415h4.029c0.141,0.832,0.863,1.469,1.736,1.469c0.861,0,1.58-0.623,1.729-1.441h10.387
		c0.139,0.832,0.861,1.469,1.732,1.469c0.975,0,1.764-0.789,1.764-1.762c0-0.972-0.789-1.762-1.764-1.762
		c-0.871,0-1.596,0.638-1.732,1.469h-10.377C118.18,34.755,117.451,34.105,116.572,34.105z"/>
	<path d="M135.689,54.205c-0.381,0-0.732,0.122-1.021,0.328l-6.461-6.463h-9.104c-0.131-0.506-0.59-0.883-1.137-0.883
		s-1.006,0.377-1.137,0.883h-1.965c-0.027-0.108-0.07-0.211-0.127-0.305l5.205-5.205c0.176,0.104,0.379,0.164,0.596,0.164
		c0.65,0,1.176-0.525,1.176-1.174s-0.523-1.175-1.176-1.175c-0.645,0-1.174,0.526-1.174,1.175c0,0.219,0.061,0.422,0.164,0.598
		l-5.203,5.203c-0.094-0.056-0.195-0.098-0.305-0.127v-2.732c0.832-0.141,1.469-0.863,1.469-1.735c0-0.971-0.789-1.761-1.762-1.761
		c-0.971,0-1.762,0.79-1.762,1.761c0,0.872,0.637,1.597,1.469,1.735v2.734c-0.412,0.105-0.736,0.431-0.844,0.844h-5.91
		c-0.125-0.736-0.707-1.319-1.443-1.442v-5.312c0.506-0.131,0.883-0.59,0.883-1.137c0-0.647-0.525-1.175-1.176-1.175
		c-0.646,0-1.174,0.526-1.174,1.175c0,0.547,0.375,1.006,0.881,1.135v2.621h-1.672c-2.199-4.744-5.373-8.94-9.268-12.338v-1.07
		c0.414-0.106,0.738-0.431,0.844-0.845h2.258c0.131,0.507,0.59,0.884,1.139,0.884c0.646,0,1.174-0.526,1.174-1.174
		c0-0.649-0.525-1.177-1.174-1.177c-0.547,0-1.008,0.376-1.139,0.883h-2.258c-0.105-0.412-0.432-0.738-0.844-0.845v-1.55
		c0.506-0.131,0.883-0.589,0.883-1.135c0-0.648-0.527-1.176-1.174-1.176c-0.648,0-1.176,0.526-1.176,1.176
		c0,0.546,0.377,1.004,0.883,1.135v1.55c-0.506,0.132-0.883,0.592-0.883,1.139c0,0.545,0.377,1.005,0.883,1.135v0.563
		c-1.992-1.667-4.164-3.126-6.479-4.349h1.604c0.129,0.507,0.59,0.882,1.135,0.882c0.648,0,1.176-0.525,1.176-1.174
		c0-0.646-0.527-1.175-1.176-1.175c-0.545,0-1.004,0.376-1.135,0.882h-2.746c-0.803-0.389-1.627-0.741-2.461-1.073v-4.126
		c0.412-0.105,0.738-0.431,0.844-0.844h5.119c0.141,0.832,0.865,1.47,1.736,1.47s1.596-0.638,1.736-1.47h4.34
		c0.133,0.503,0.59,0.875,1.135,0.875c0.543,0,1-0.372,1.133-0.875h3.473c0.027,0.108,0.07,0.211,0.125,0.306l-3.715,3.716
		c-0.287-0.205-0.639-0.328-1.02-0.328c-0.973,0-1.764,0.79-1.764,1.763c0,0.971,0.791,1.76,1.764,1.76
		c0.971,0,1.762-0.789,1.762-1.76c0-0.382-0.123-0.733-0.328-1.021l3.715-3.718c0.094,0.058,0.195,0.1,0.305,0.127v7.521
		c-0.506,0.131-0.883,0.59-0.883,1.137c0,0.646,0.527,1.173,1.176,1.173c0.646,0,1.174-0.525,1.174-1.173
		c0-0.547-0.377-1.006-0.883-1.137v-2.62h8.016c0.133,0.508,0.59,0.883,1.137,0.883s1.006-0.375,1.137-0.883h2.879
		c0.139,0.833,0.861,1.47,1.734,1.47c0.971,0,1.762-0.789,1.762-1.761s-0.791-1.762-1.762-1.762c-0.873,0-1.598,0.637-1.734,1.469
		h-2.879c-0.107-0.413-0.432-0.736-0.844-0.843v-3.479c0.412-0.105,0.732-0.429,0.842-0.841h10.336
		c0.107,0.413,0.432,0.737,0.844,0.844v5.148c-0.832,0.141-1.469,0.862-1.469,1.733c0,0.973,0.789,1.764,1.762,1.764
		c0.971,0,1.76-0.791,1.76-1.764c0-0.871-0.635-1.596-1.469-1.733v-5.148c0.508-0.13,0.883-0.589,0.883-1.135
		c0-0.647-0.527-1.175-1.174-1.175c-0.547,0-1.006,0.375-1.137,0.882h-10.334c-0.129-0.508-0.588-0.885-1.137-0.885
		c-0.547,0-1.01,0.377-1.137,0.885h-1.803c-0.139-0.832-0.863-1.469-1.732-1.469c-0.871,0-1.598,0.637-1.734,1.469h-1.9
		c-0.105-0.412-0.43-0.737-0.844-0.843v-5.2l-3.775-3.775c0.205-0.288,0.328-0.641,0.328-1.021c0-0.972-0.789-1.762-1.762-1.762
		s-1.762,0.79-1.762,1.762s0.789,1.762,1.762,1.762c0.381,0,0.732-0.122,1.02-0.328l3.605,3.605v4.958
		c-0.414,0.104-0.736,0.431-0.844,0.843h-3.471c-0.127-0.511-0.588-0.891-1.137-0.891c-0.551,0-1.012,0.38-1.137,0.891h-4.338
		c-0.143-0.832-0.865-1.469-1.736-1.469s-1.596,0.637-1.736,1.469h-1.928v-4.187c0.832-0.141,1.469-0.864,1.469-1.735
		c0-0.971-0.791-1.763-1.762-1.763s-1.76,0.792-1.76,1.763c0,0.871,0.637,1.596,1.469,1.735v4.187h-2.605
		c-0.133-0.507-0.592-0.882-1.139-0.882c-0.646,0-1.174,0.526-1.174,1.175c0,0.546,0.375,1.004,0.883,1.135v3.896
		c-1.42-0.537-2.885-0.985-4.383-1.347v-4.142c0.832-0.14,1.469-0.864,1.469-1.736c0-0.971-0.789-1.763-1.762-1.763
		c-0.971,0-1.762,0.792-1.762,1.763c0,0.872,0.637,1.598,1.471,1.736v4.007c-1.354-0.303-2.732-0.537-4.139-0.687V7.643
		c0.832-0.142,1.469-0.863,1.469-1.735c0-0.971-0.791-1.761-1.762-1.761c-0.973,0-1.762,0.79-1.762,1.761
		c0,0.872,0.637,1.595,1.469,1.735v14.992c-1.111-0.101-2.232-0.159-3.371-0.159c-0.338,0-0.672,0.017-1.008,0.024v-2.119
		c0.832-0.139,1.469-0.863,1.469-1.733c0-0.974-0.789-1.763-1.762-1.763c-0.873,0-1.596,0.637-1.733,1.47h-0.804
		c-0.129-0.507-0.588-0.883-1.135-0.883s-1.006,0.376-1.137,0.883H59.65v-4.479c0.834-0.139,1.471-0.862,1.471-1.734
		c0-0.973-0.791-1.764-1.762-1.764s-1.762,0.791-1.762,1.764c0,0.872,0.637,1.596,1.469,1.734v5.064h4.225
		c0.107,0.411,0.43,0.735,0.844,0.844v3.072c-1.555,0.222-3.076,0.542-4.562,0.95c-0.07-0.015-0.137-0.043-0.213-0.043
		c-0.312,0-0.586,0.131-0.797,0.329c-0.559,0.172-1.108,0.355-1.654,0.552h-0.284c-0.104-0.412-0.433-0.736-0.845-0.845V22.2
		c0.507-0.129,0.884-0.59,0.884-1.136c0-0.647-0.527-1.175-1.175-1.175c-0.547,0-1.006,0.377-1.137,0.883h-5.145
		c-0.131-0.506-0.59-0.883-1.137-0.883c-0.547,0-1.006,0.377-1.137,0.883h-6.277c-0.105-0.413-0.432-0.737-0.842-0.844v-9.464
		c0.832-0.14,1.469-0.862,1.469-1.734c0-0.973-0.791-1.763-1.764-1.763c-0.971,0-1.76,0.79-1.76,1.763
		c0,0.872,0.637,1.597,1.469,1.734v9.462c-0.506,0.132-0.881,0.591-0.881,1.138c0,0.646,0.527,1.174,1.172,1.174
		c0.547,0,1.006-0.376,1.137-0.882h6.277c0.131,0.506,0.59,0.882,1.137,0.882c0.547,0,1.006-0.376,1.137-0.882h5.145
		c0.105,0.413,0.433,0.737,0.844,0.843V23.8c-0.411,0.106-0.735,0.433-0.844,0.844h-5.145c-0.131-0.506-0.59-0.881-1.137-0.881
		c-0.547,0-1.006,0.375-1.137,0.881h-2.024c-0.141-0.832-0.863-1.471-1.736-1.471c-0.971,0-1.762,0.791-1.762,1.763
		c0,0.971,0.791,1.763,1.762,1.763c0.873,0,1.596-0.637,1.736-1.47h2.025c0.131,0.507,0.59,0.882,1.136,0.882
		c0.548,0,1.007-0.375,1.138-0.882h1.707v2.202c-2.435,1.406-4.692,3.079-6.735,4.984c-0.279-0.604-0.883-1.025-1.591-1.025
		c-0.971,0-1.76,0.79-1.76,1.762c0,0.717,0.434,1.327,1.05,1.603c-1.663,1.852-3.138,3.872-4.405,6.031h-4.088v-4.262h2.572
		c0.129,0.508,0.588,0.884,1.135,0.884c0.646,0,1.174-0.526,1.174-1.175c0-0.647-0.527-1.174-1.174-1.174
		c-0.547,0-1.006,0.375-1.135,0.881h-2.572v-3.556c0.738-0.124,1.318-0.706,1.443-1.442h3.557c0.129,0.507,0.59,0.882,1.135,0.882
		c0.648,0,1.176-0.526,1.176-1.174c0-0.648-0.527-1.174-1.176-1.174c-0.545,0-1.004,0.375-1.135,0.882h-3.557
		c-0.125-0.738-0.705-1.319-1.443-1.443V22.54c0.832-0.139,1.469-0.863,1.469-1.734c0-0.87-0.637-1.597-1.469-1.735v-3.24H19.559
		c-0.141-0.832-0.865-1.469-1.736-1.469c-0.973,0-1.762,0.79-1.762,1.762c0,0.973,0.789,1.761,1.762,1.761
		c0.873,0,1.596-0.637,1.736-1.47h13.244v2.656c-0.834,0.14-1.471,0.865-1.471,1.735c0,0.873,0.637,1.597,1.471,1.734v6.373
		c-0.74,0.124-1.322,0.705-1.445,1.443h-9.484c-0.139-0.832-0.863-1.469-1.734-1.469c-0.971,0-1.762,0.788-1.762,1.761
		c0,0.381,0.121,0.731,0.328,1.021l-6.271,6.271c-0.289-0.205-0.641-0.328-1.02-0.328c-0.971,0-1.762,0.791-1.762,1.763
		s0.791,1.761,1.762,1.761c0.971,0,1.762-0.789,1.762-1.761c0-0.381-0.123-0.731-0.328-1.021l6.27-6.271
		c0.291,0.206,0.641,0.328,1.021,0.328c0.871,0,1.596-0.637,1.734-1.47h9.484c0.123,0.736,0.705,1.318,1.445,1.442v8.4h-4.246
		c-0.107-0.411-0.432-0.736-0.844-0.844v-2.571c0.506-0.132,0.883-0.591,0.883-1.138c0-0.646-0.527-1.174-1.176-1.174
		c-0.646,0-1.172,0.526-1.172,1.174c0,0.547,0.375,1.006,0.879,1.138v2.571c-0.504,0.131-0.879,0.59-0.879,1.137
		c0,0.218,0.059,0.42,0.162,0.596l-2.625,2.626c-0.176-0.104-0.379-0.164-0.598-0.164c-0.645,0-1.172,0.526-1.172,1.175
		c0,0.647,0.527,1.174,1.172,1.174c0.648,0,1.176-0.526,1.176-1.174c0-0.22-0.061-0.423-0.166-0.598l2.627-2.626
		c0.174,0.104,0.379,0.165,0.596,0.165c0.547,0,1.006-0.375,1.137-0.882h4.246v6.386c-0.51,0.131-0.885,0.59-0.885,1.139
		c0,0.545,0.375,1.006,0.885,1.135v3.961c-0.51,0.131-0.885,0.59-0.885,1.136c0,0.452,0.265,0.833,0.639,1.028
		c-0.074,0.834-0.117,1.678-0.136,2.525h-2.64v-5.664c0.832-0.14,1.469-0.865,1.469-1.736c0-0.971-0.789-1.762-1.76-1.762
		c-0.871,0-1.596,0.637-1.736,1.469h-3.832c-0.141-0.832-0.865-1.469-1.736-1.469c-0.869,0-1.594,0.637-1.734,1.469h-2.336v-4.541
		c0.506-0.129,0.881-0.59,0.881-1.135c0-0.647-0.525-1.175-1.174-1.175c-0.649,0-1.174,0.526-1.174,1.175
		c0,0.545,0.375,1.004,0.881,1.135v4.541h-2.957c-0.141-0.832-0.863-1.469-1.734-1.469c-0.971,0-1.762,0.791-1.762,1.762
		s0.791,1.763,1.762,1.763c0.871,0,1.594-0.638,1.734-1.47h5.879c0.125,0.738,0.707,1.318,1.443,1.443V61.6h-1.654v-1.494
		c0.504-0.129,0.881-0.588,0.881-1.135c0-0.647-0.527-1.175-1.174-1.175c-0.648,0-1.176,0.526-1.176,1.175
		c0,0.547,0.377,1.006,0.883,1.135v3.336c-0.832,0.142-1.469,0.863-1.469,1.734c0,0.873,0.637,1.596,1.469,1.736v7.268
		c-0.738,0.125-1.318,0.707-1.441,1.443h-6.725l-5.494-5.496c0.205-0.287,0.328-0.639,0.328-1.02c0-0.972-0.793-1.762-1.762-1.762
		c-0.971,0-1.762,0.79-1.762,1.762c0,0.971,0.791,1.762,1.762,1.762c0.381,0,0.732-0.123,1.02-0.328l5.666,5.666h6.967
		c0.141,0.834,0.863,1.471,1.734,1.471c0.871,0,1.596-0.637,1.734-1.471h5.26c0.131,0.508,0.59,0.883,1.137,0.883
		s1.006-0.375,1.135-0.883h2.158c0.107,0.414,0.434,0.738,0.846,0.846v6.021h-5.803c-0.131-0.508-0.59-0.883-1.135-0.883
		c-0.648,0-1.176,0.526-1.176,1.174c0,0.646,0.527,1.174,1.176,1.174c0.545,0,1.004-0.375,1.135-0.881h8.061
		c0.125,0.736,0.705,1.318,1.443,1.443v1.332H22.081c-0.139-0.834-0.863-1.472-1.732-1.472c-0.973,0-1.762,0.791-1.762,1.765
		c0,0.971,0.789,1.76,1.762,1.76c0.869,0,1.592-0.637,1.732-1.469h17.551v4.155c-0.412,0.106-0.736,0.433-0.844,0.845h-11.66v11.86
		c-0.832,0.142-1.469,0.865-1.469,1.736c0,0.971,0.791,1.762,1.762,1.762c0.971,0,1.762-0.791,1.762-1.762
		c0-0.871-0.637-1.597-1.469-1.736V92.602h11.074c0.107,0.414,0.43,0.737,0.844,0.844v5.301c-0.506,0.131-0.883,0.59-0.883,1.137
		c0,0.648,0.527,1.174,1.176,1.174c0.649,0,1.174-0.524,1.174-1.174c0-0.547-0.375-1.006-0.881-1.137v-5.301
		c0.506-0.131,0.881-0.588,0.881-1.135s-0.375-1.006-0.881-1.138v-4.155h1.221c0.141,0.832,0.863,1.469,1.734,1.469
		c0.381,0,0.732-0.123,1.02-0.328l7.395,7.393c-0.105,0.176-0.166,0.379-0.166,0.598c0,0.646,0.527,1.175,1.176,1.175
		c0.646,0,1.172-0.527,1.172-1.175c0-0.547-0.375-1.006-0.881-1.137v-2.426c1.367,0.684,2.78,1.283,4.236,1.797v4.363
		c-0.508,0.131-0.883,0.59-0.883,1.137c0,0.545,0.375,1.006,0.883,1.135v1.762h-5.736c-0.141-0.831-0.863-1.469-1.734-1.469
		c-0.973,0-1.761,0.789-1.761,1.763c0,0.971,0.789,1.76,1.761,1.76c0.871,0,1.597-0.638,1.734-1.47h9.187
		c0.122,0.738,0.704,1.32,1.442,1.443v3.199c-0.506,0.131-0.885,0.592-0.885,1.137c0,0.648,0.529,1.176,1.176,1.176
		c0.65,0,1.176-0.526,1.176-1.176c0-0.545-0.377-1.006-0.883-1.137v-3.199c0.736-0.123,1.32-0.705,1.443-1.443h6.676
		c0.141,0.832,0.863,1.47,1.736,1.47c0.971,0,1.76-0.789,1.76-1.76c0-0.974-0.789-1.763-1.76-1.763
		c-0.873,0-1.596,0.638-1.736,1.469h-1.967v-3.875c0.736-0.122,1.318-0.704,1.443-1.44h1.732c0.131,0.506,0.588,0.881,1.135,0.881
		s1.006-0.375,1.137-0.881h4.176v3.994c-0.506,0.131-0.881,0.592-0.881,1.14c0,0.646,0.525,1.174,1.174,1.174
		c0.646,0,1.174-0.527,1.174-1.174c0-0.548-0.377-1.009-0.883-1.14v-3.994h1.732c0.141,0.832,0.863,1.47,1.736,1.47
		c0.969,0,1.76-0.789,1.76-1.763c0-0.973-0.791-1.762-1.76-1.762c-0.873,0-1.598,0.637-1.736,1.469h-1.732v-0.967
		c0.438-0.113,0.764-0.479,0.848-0.929c2.465-0.721,4.824-1.686,7.047-2.877v0.65c-0.506,0.131-0.881,0.59-0.881,1.137
		s0.375,1.006,0.881,1.137v14.328c-0.832,0.142-1.469,0.863-1.469,1.736c0,0.969,0.791,1.76,1.762,1.76
		c0.973,0,1.762-0.791,1.762-1.76c0-0.873-0.637-1.596-1.469-1.736V95.029c0.506-0.131,0.883-0.59,0.883-1.137
		s-0.377-1.006-0.883-1.137v-0.977c1.143-0.639,2.244-1.338,3.307-2.09c0.244,0.676,0.895,1.16,1.654,1.16
		c0.871,0,1.594-0.638,1.734-1.47h6.445v2.867h-3.594c-0.131-0.506-0.588-0.883-1.133-0.883c-0.648,0-1.176,0.528-1.176,1.178
		c0,0.646,0.527,1.174,1.176,1.174c0.547,0,1.006-0.377,1.133-0.883h3.594v2.992c-0.834,0.139-1.471,0.862-1.471,1.733
		c0,0.971,0.791,1.762,1.764,1.762s1.76-0.791,1.76-1.762c0-0.871-0.637-1.596-1.469-1.735V89.38h2.646
		c0.131,0.506,0.59,0.884,1.135,0.884c0.648,0,1.176-0.527,1.176-1.175s-0.527-1.176-1.176-1.176c-0.545,0-1.004,0.377-1.135,0.883
		h-9.674c-0.082-0.481-0.361-0.896-0.75-1.16c0.684-0.581,1.35-1.188,1.988-1.817h0.516c0.129,0.506,0.588,0.883,1.135,0.883
		s1.006-0.377,1.137-0.883h2.975c0.139,0.832,0.863,1.469,1.734,1.469c0.971,0,1.76-0.791,1.76-1.762s-0.789-1.762-1.76-1.762
		c-0.871,0-1.596,0.637-1.734,1.469h-2.975c-0.107-0.412-0.432-0.738-0.846-0.844v-0.644c0.789-0.906,1.533-1.853,2.232-2.834h1.396
		c0.141,0.832,0.863,1.471,1.736,1.471c0.871,0,1.594-0.639,1.734-1.471h3.029v11.09c-0.832,0.142-1.469,0.862-1.469,1.735
		c0,0.972,0.791,1.761,1.762,1.761c0.969,0,1.76-0.789,1.76-1.761c0-0.873-0.637-1.596-1.469-1.735v-6.185h10.584
		c0.141,0.832,0.865,1.47,1.736,1.47c0.973,0,1.762-0.791,1.762-1.763c0-0.971-0.789-1.762-1.762-1.762
		c-0.381,0-0.732,0.123-1.021,0.328l-3.594-3.594v-6.434h6.727l6.152-6.15c0.287,0.205,0.639,0.328,1.02,0.328
		c0.973,0,1.762-0.791,1.762-1.762c0-0.972-0.789-1.763-1.762-1.763s-1.762,0.791-1.762,1.763c0,0.381,0.121,0.731,0.328,1.021
		l-5.979,5.979h-6.484v-0.892c0.506-0.131,0.881-0.59,0.881-1.137c0-0.648-0.525-1.177-1.172-1.177
		c-0.648,0-1.176,0.527-1.176,1.177c0,0.547,0.375,1.006,0.883,1.137v7.324l-1.744-1.744c0.092-0.168,0.145-0.36,0.145-0.567
		c0-0.646-0.525-1.175-1.174-1.175s-1.174,0.527-1.174,1.175s0.525,1.176,1.174,1.176c0.23,0,0.445-0.068,0.627-0.185l1.732,1.734
		h-6.709v-4.568c0.506-0.131,0.883-0.59,0.883-1.135c0-0.647-0.525-1.177-1.174-1.177c-0.547,0-1.006,0.378-1.137,0.884h-2.836
		v-1.146c0.596-1.492,1.104-3.029,1.504-4.611h10.957c0.141,0.832,0.863,1.471,1.736,1.471c0.973,0,1.762-0.791,1.762-1.762
		c0-0.973-0.789-1.764-1.762-1.764c-0.873,0-1.598,0.639-1.736,1.471h-1.162v-5.516h0.799c0.141,0.832,0.863,1.469,1.734,1.469
		c0.971,0,1.762-0.789,1.762-1.762c0-0.972-0.791-1.763-1.762-1.763c-0.871,0-1.596,0.638-1.734,1.469h-2.428v-2.923
		c0.506-0.131,0.881-0.589,0.881-1.136c0-0.548-0.375-1.007-0.881-1.136v-4.297h3.393c0.105,0.412,0.43,0.736,0.844,0.844v1.672
		c-0.506,0.131-0.883,0.589-0.883,1.136c0,0.647,0.527,1.177,1.176,1.177c0.646,0,1.172-0.527,1.172-1.177
		c0-0.547-0.375-1.005-0.881-1.136v-1.672c0.506-0.131,0.881-0.59,0.881-1.137s-0.375-1.006-0.881-1.137v-1.471
		c0.412-0.105,0.738-0.432,0.844-0.844h8.863l6.291,6.291c-0.207,0.287-0.328,0.641-0.328,1.021c0,0.972,0.789,1.763,1.762,1.763
		c0.971,0,1.762-0.791,1.762-1.763C137.451,54.995,136.66,54.205,135.689,54.205z M103.99,20.958
		c0.414-0.105,0.738-0.431,0.844-0.844h1.9c0.139,0.832,0.861,1.47,1.734,1.47s1.596-0.638,1.734-1.47h1.803
		c0.105,0.41,0.432,0.734,0.844,0.841v3.479c-0.414,0.105-0.738,0.43-0.844,0.843h-8.016V20.958L103.99,20.958z M108.031,80.913
		h7.293l3.594,3.592c-0.15,0.213-0.258,0.461-0.303,0.729h-10.584V80.913z M36.502,76.402c0.521,1.011,1.087,1.992,1.695,2.945
		h-1.695V76.402z M106.402,59.477c0-0.453-0.018-0.902-0.033-1.353h5.641c0.105,0.41,0.432,0.735,0.846,0.843v2.924h-6.539
		C106.367,61.091,106.402,60.287,106.402,59.477z M112.008,57.538h-5.645c-0.004-0.011-0.012-0.021-0.014-0.031
		c-0.07-1.336-0.217-2.651-0.426-3.946c0.393-0.265,0.676-0.678,0.758-1.162h6.172v4.297
		C112.439,56.801,112.115,57.126,112.008,57.538z M104.652,44.52v2.108c-0.172,0.029-0.332,0.087-0.482,0.162
		c-0.281-0.771-0.596-1.524-0.926-2.271H104.652z M64.719,19.782c0.414-0.106,0.738-0.432,0.844-0.844h0.804
		c0.122,0.735,0.704,1.317,1.44,1.441v2.135c-1.041,0.045-2.07,0.137-3.088,0.266V19.782z M51.501,25.229h2.853
		c0.035,0.135,0.096,0.258,0.172,0.369c-1.032,0.454-2.043,0.951-3.023,1.495L51.501,25.229L51.501,25.229z M33.385,41.369h3.752
		c-1.232,2.189-2.252,4.515-3.021,6.951c-0.154-0.275-0.415-0.483-0.73-0.565L33.385,41.369L33.385,41.369z M33.385,50.027
		c0.096-0.023,0.185-0.062,0.27-0.108c-0.098,0.36-0.184,0.728-0.27,1.092V50.027z M32.407,59.264c0,0.071-0.006,0.141-0.006,0.213
		c0,1.838,0.139,3.643,0.398,5.407h-2.986c-0.123-0.735-0.705-1.317-1.443-1.44v-4.18H32.407L32.407,59.264z M27.786,74.779
		c-0.412,0.105-0.736,0.433-0.844,0.845h-5.26c-0.123-0.738-0.705-1.319-1.441-1.442v-7.269c0.736-0.125,1.318-0.707,1.441-1.442
		h4.66c0.125,0.735,0.707,1.317,1.443,1.442L27.786,74.779L27.786,74.779z M27.786,63.441c-0.736,0.123-1.318,0.705-1.443,1.441
		h-4.66c-0.123-0.736-0.707-1.318-1.441-1.441v-1.258h7.545L27.786,63.441L27.786,63.441z M25.2,60.146
		c0.547,0,1.006-0.375,1.137-0.883h1.449v2.338h-5.307v-8.588c0.736-0.123,1.318-0.705,1.443-1.441h3.832
		c0.125,0.736,0.707,1.318,1.443,1.441v5.666h-2.861c-0.131-0.507-0.59-0.883-1.137-0.883c-0.648,0-1.174,0.526-1.174,1.174
		C24.025,59.619,24.551,60.146,25.2,60.146z M35.918,81.63c-0.738,0.125-1.318,0.707-1.443,1.445h-1.672v-6.021
		c0.41-0.107,0.734-0.433,0.842-0.847h2.273V81.63z M33.645,75.624c-0.131-0.506-0.59-0.883-1.135-0.883
		c-0.549,0-1.008,0.377-1.139,0.883h-2.158c-0.105-0.412-0.43-0.738-0.844-0.845v-7.866c0.738-0.125,1.32-0.707,1.443-1.442h3.078
		c0.259,1.584,0.617,3.133,1.069,4.643l-0.806-0.807c0.104-0.177,0.164-0.377,0.164-0.597c0-0.646-0.527-1.174-1.174-1.174
		c-0.648,0-1.176,0.526-1.176,1.174s0.527,1.174,1.176,1.174c0.219,0,0.42-0.061,0.596-0.163l1.613,1.612
		c0.45,1.334,0.971,2.635,1.564,3.896v0.396H33.645z M41.438,86.436h-4.936v-1.332c0.832-0.142,1.471-0.865,1.471-1.736
		s-0.639-1.596-1.471-1.736v-1.697h2.069c1.218,1.832,2.596,3.543,4.11,5.125C42.045,85.245,41.549,85.768,41.438,86.436z
		 M52.303,95.014c-0.109,0.028-0.211,0.071-0.305,0.127l-7.393-7.394c0.124-0.172,0.207-0.373,0.262-0.584
		c2.25,1.996,4.746,3.721,7.436,5.125V95.014z M62.018,101.337c-0.738,0.125-1.317,0.707-1.442,1.442h-2.867v-1.762
		c0.414-0.104,0.737-0.43,0.847-0.844h3.465v1.163H62.018z M58.553,99.591c-0.107-0.414-0.432-0.735-0.846-0.844v-4.166
		c1.402,0.467,2.839,0.858,4.311,1.158v3.852H58.553z M68.168,102.779h-4.123c-0.123-0.735-0.707-1.317-1.443-1.442v-5.491
		c1.404,0.26,2.836,0.44,4.291,0.538c-0.119,0.238-0.192,0.505-0.192,0.787c0,0.871,0.637,1.597,1.469,1.733L68.168,102.779
		L68.168,102.779z M70.197,96.878c-0.023-0.147-0.079-0.282-0.141-0.416c0.729-0.014,1.449-0.047,2.166-0.103
		c-0.139,0.144-0.242,0.32-0.293,0.519H70.197z M78.377,95.911v0.967h-4.176c-0.072-0.272-0.244-0.502-0.471-0.66
		c1.371-0.159,2.715-0.396,4.035-0.7C77.922,95.706,78.133,95.85,78.377,95.911z M100.947,80.329h-0.98
		c0.273-0.399,0.535-0.81,0.793-1.22l0.49,0.49C101.098,79.812,100.992,80.062,100.947,80.329z M106.604,74.917
		c0.105,0.412,0.432,0.735,0.844,0.844v4.568h-3.029c-0.141-0.832-0.861-1.47-1.732-1.47c-0.381,0-0.732,0.121-1.021,0.328
		l-0.584-0.584c0.717-1.186,1.361-2.42,1.945-3.688L106.604,74.917L106.604,74.917z M109.289,63.105
		c-0.479,0.15-0.83,0.597-0.83,1.123c0,0.527,0.352,0.976,0.83,1.123v2.64h-3.883c0.422-1.791,0.715-3.634,0.865-5.517h3.018V63.105
		z M114.484,62.477v5.516h-4.613V65.38c0.535-0.11,0.938-0.586,0.938-1.149c0-0.566-0.4-1.039-0.938-1.148v-0.605H114.484
		L114.484,62.477z M117.674,50.971c-0.414,0.104-0.738,0.432-0.844,0.844h-10.148c-0.123-0.727-0.689-1.303-1.41-1.438
		c-0.023-0.092-0.045-0.184-0.07-0.273c0.754-0.11,1.355-0.697,1.48-1.446h5.91c0.131,0.506,0.59,0.881,1.137,0.881
		s1.006-0.375,1.137-0.881h1.965c0.105,0.411,0.43,0.737,0.844,0.842V50.971L117.674,50.971z"/>
	<path d="M113.598,105.938V90.881c0.506-0.129,0.883-0.588,0.883-1.135c0-0.648-0.525-1.174-1.174-1.174s-1.176,0.525-1.176,1.174
		c0,0.547,0.377,1.006,0.885,1.135v15.057c-0.834,0.142-1.471,0.863-1.471,1.736c0,0.971,0.791,1.762,1.762,1.762
		s1.76-0.791,1.76-1.762C115.066,106.802,114.432,106.079,113.598,105.938z"/>
	<path d="M109.135,29.026h5.453c0.131,0.505,0.59,0.882,1.137,0.882c0.648,0,1.174-0.527,1.174-1.176
		c0-0.647-0.525-1.175-1.174-1.175c-0.547,0-1.006,0.378-1.137,0.884h-5.453c-0.129-0.506-0.588-0.884-1.135-0.884
		c-0.648,0-1.176,0.526-1.176,1.175c0,0.647,0.527,1.176,1.176,1.176C108.547,29.908,109.006,29.531,109.135,29.026z"/>
	<g>
		<path fill="#FFFFFF" d="M111.986,59.55c0-23.638-19.23-42.869-42.868-42.869c-8.563,0.001-16.832,2.52-23.908,7.282l0.504,0.746
			c6.927-4.663,15.019-7.128,23.404-7.129c23.14,0,41.968,18.827,41.968,41.97c0,21.791-16.697,39.752-37.969,41.771
			c-0.293-1.221-1.385-2.133-2.694-2.133c-1.532,0-2.774,1.244-2.774,2.779c0,1.531,1.242,2.775,2.774,2.775
			c1.446,0,2.622-1.111,2.751-2.523C94.916,100.169,111.986,81.818,111.986,59.55z"/>
		<polygon fill="#FFFFFF" points="34.37,32.963 32.799,32.963 32.799,35.281 30.483,35.281 30.483,36.852 32.799,36.852 
			32.799,39.168 34.37,39.168 34.37,36.852 36.688,36.852 36.688,35.281 34.37,35.281 		"/>
		<polygon fill="#FFFFFF" points="104.717,91.184 102.506,91.184 102.506,94.45 99.24,94.45 99.24,96.663 102.506,96.663 
			102.506,99.93 104.717,99.93 104.717,96.663 107.984,96.663 107.984,94.45 104.717,94.45 		"/>
		<path fill="#FFFFFF" d="M40.983,25.26c-0.477,0-0.949,0.062-1.35,0.14c-0.131-0.11-0.262-0.231-0.398-0.365v2.192
			c0,0.936,0.586,1.617,1.748,2.026c1.16-0.409,1.748-1.092,1.748-2.026v-2.192c-0.137,0.134-0.27,0.255-0.4,0.365
			C41.93,25.32,41.456,25.26,40.983,25.26z"/>
	</g>
	<g>
		<path fill="#BE922D" d="M70.018,52.579c0.021,0,0.039-0.002,0.06-0.009c3.409-1.194,6.636-2.855,9.856-5.084
			c0.061-0.043,0.09-0.115,0.072-0.188c-0.016-0.072-0.076-0.127-0.146-0.137c-3.484-0.512-6.797-0.77-9.842-0.77V52.579z"/>
	</g>
	<g>
		<path fill="#B2B2B3" d="M84.523,49.15c-0.025-0.014-0.053-0.02-0.08-0.02c-0.039,0-0.076,0.012-0.107,0.036
			c-1.066,0.817-2.145,1.584-3.201,2.276c-0.047,0.031-0.072,0.078-0.078,0.134c-0.008,0.052,0.014,0.104,0.051,0.146
			c0.871,0.863,1.35,2.016,1.35,3.236c0,2.521-2.051,4.568-4.57,4.568c-2.213,0-4.102-1.58-4.494-3.76
			c-0.01-0.054-0.041-0.098-0.09-0.125c-0.027-0.016-0.057-0.021-0.088-0.021c-0.021,0-0.043,0.005-0.066,0.013
			c-0.207,0.085-0.418,0.162-0.633,0.244c-0.062,0.024-0.107,0.08-0.115,0.146c-0.385,2.899-1.268,5.459-2.381,6.922v2.726
			c0.047,0,0.097-0.021,0.131-0.06c1.586-1.707,3.979-2.918,7.535-3.811c4.893-1.227,6.939-2.771,6.939-9.172v-3.318
			C84.623,49.243,84.584,49.182,84.523,49.15z"/>
	</g>
	<g>
		<path fill="#BE922D" d="M84.494,59.076c-0.018-0.006-0.033-0.008-0.051-0.008c-0.061,0-0.117,0.031-0.15,0.086
			c-1.121,1.771-2.959,2.843-6.35,3.691c-4.178,1.049-6.57,2.473-7.926,4.723v13.06c0.021,0,0.043-0.004,0.064-0.012
			c9.785-3.793,14.541-9.449,14.541-17.287v-4.081C84.623,59.168,84.57,59.098,84.494,59.076z"/>
	</g>
	<g>
		<path fill="#FFC72C" d="M70.018,52.579c-0.02,0-0.041-0.002-0.061-0.009c-3.412-1.194-6.637-2.855-9.857-5.084
			c-0.061-0.043-0.088-0.115-0.072-0.188c0.017-0.072,0.076-0.127,0.148-0.137c3.484-0.512,6.795-0.77,9.842-0.77V52.579z"/>
	</g>
	<g>
		<path fill="#FFFFFF" d="M55.51,49.15c0.025-0.014,0.053-0.02,0.08-0.02c0.037,0,0.076,0.012,0.107,0.036
			c1.068,0.817,2.146,1.584,3.201,2.276c0.047,0.031,0.074,0.078,0.08,0.134c0.004,0.052-0.015,0.104-0.052,0.146
			c-0.868,0.863-1.35,2.016-1.35,3.236c0,2.521,2.051,4.568,4.569,4.568c2.211,0,4.103-1.58,4.494-3.76
			c0.01-0.054,0.041-0.098,0.088-0.125c0.027-0.016,0.058-0.021,0.088-0.021c0.021,0,0.045,0.005,0.066,0.013
			c0.209,0.085,0.418,0.162,0.637,0.244c0.06,0.024,0.105,0.08,0.113,0.146c0.383,2.899,1.268,5.459,2.383,6.922v2.726
			c-0.051,0-0.098-0.021-0.133-0.06c-1.586-1.707-3.979-2.918-7.535-3.811c-4.895-1.227-6.938-2.771-6.938-9.172v-3.318
			C55.411,49.243,55.447,49.182,55.51,49.15z"/>
	</g>
	<g>
		<path fill="#FFC72C" d="M55.54,59.076c0.019-0.006,0.035-0.008,0.051-0.008c0.062,0,0.117,0.031,0.15,0.086
			c1.118,1.771,2.959,2.843,6.35,3.691c4.179,1.049,6.57,2.473,7.929,4.723v13.06c-0.023,0-0.045-0.004-0.066-0.012
			c-9.785-3.793-14.541-9.449-14.541-17.287v-4.081C55.411,59.168,55.463,59.098,55.54,59.076z"/>
	</g>
	<g>
		<path fill="#FFC72C" d="M65.521,55.064c-0.389-0.17-0.776-0.351-1.164-0.535c-0.022-0.01-0.051-0.016-0.075-0.016
			c-0.037,0-0.074,0.01-0.105,0.033c-0.053,0.037-0.079,0.104-0.071,0.167c0.01,0.081,0.016,0.162,0.016,0.245
			c0,1.087-0.885,1.971-1.971,1.971c-1.088,0-1.971-0.884-1.971-1.971c0-0.738,0.405-1.408,1.062-1.749
			c0.059-0.03,0.096-0.09,0.098-0.155c0.002-0.064-0.032-0.127-0.09-0.16c-0.367-0.211-0.733-0.431-1.101-0.655
			c-0.028-0.019-0.062-0.026-0.094-0.026c-0.041,0-0.082,0.014-0.115,0.041c-0.817,0.668-1.285,1.654-1.285,2.706
			c0,1.929,1.566,3.494,3.494,3.494c1.808,0,3.336-1.409,3.48-3.211C65.635,55.166,65.594,55.096,65.521,55.064z"/>
	</g>
	<g>
		<path fill="#FFC72C" d="M79.887,52.239c-0.367,0.226-0.736,0.444-1.102,0.655c-0.059,0.033-0.09,0.096-0.09,0.16
			c0.002,0.065,0.039,0.125,0.096,0.155c0.656,0.341,1.064,1.011,1.064,1.749c0,1.087-0.885,1.971-1.973,1.971
			s-1.971-0.884-1.971-1.971c0-0.083,0.006-0.164,0.018-0.245c0.008-0.063-0.021-0.13-0.072-0.167
			c-0.031-0.023-0.068-0.033-0.105-0.033c-0.025,0-0.053,0.006-0.076,0.016c-0.387,0.186-0.775,0.365-1.166,0.535
			c-0.07,0.031-0.111,0.102-0.105,0.179c0.145,1.802,1.674,3.211,3.48,3.211c1.928,0,3.496-1.565,3.496-3.494
			c0-1.052-0.471-2.038-1.287-2.706c-0.033-0.027-0.074-0.041-0.113-0.041C79.947,52.213,79.916,52.221,79.887,52.239z"/>
	</g>
	<path fill="#FFFFFF" d="M87.049,38.007c-1.129,1.099-2.25,2.138-3.344,3.097c-4.844-0.879-9.477-1.322-13.785-1.322
		c-4.311,0-8.943,0.445-13.788,1.322c-1.087-0.953-2.188-1.974-3.344-3.098l-3.89-3.783V63.13c0,11.101,6.815,19.129,20.26,23.867
		l0.762,0.269l0.762-0.269c13.441-4.738,20.26-12.769,20.26-23.867V34.221L87.049,38.007z M88.648,63.364
		c0,10.024-6.303,17.323-18.729,21.704c-12.427-4.381-18.729-11.68-18.729-21.704V39.882c1.471,1.433,2.89,2.728,4.279,3.91
		c4.295-0.832,9.364-1.487,14.449-1.487c5.084,0,10.154,0.655,14.449,1.487c1.389-1.185,2.809-2.479,4.277-3.91v23.482H88.648z"/>
	<path d="M69.92,42.305c-5.085,0-10.154,0.655-14.449,1.487c-1.391-1.185-2.81-2.479-4.279-3.91v23.482
		c0,10.024,6.303,17.323,18.729,21.704c12.426-4.381,18.729-11.68,18.729-21.704V39.882c-1.471,1.433-2.891,2.728-4.277,3.91
		C80.076,42.96,75.004,42.305,69.92,42.305z M55.493,63.364v-4.081c1.29,2.042,3.446,3.017,6.456,3.773
		c4.244,1.062,6.666,2.529,7.972,4.898c1.306-2.369,3.728-3.836,7.97-4.898c3.012-0.758,5.168-1.731,6.457-3.773v4.081
		c0,7.745-4.727,13.358-14.427,17.12C60.218,76.725,55.493,71.109,55.493,63.364z M84.348,52.665c0,6.28-2.008,7.795-6.807,9.002
		c-3.553,0.892-5.998,2.108-7.621,3.858c-1.626-1.75-4.07-2.969-7.622-3.858c-4.799-1.207-6.806-2.722-6.806-9.002v-3.319
		c1.076,0.823,2.146,1.584,3.212,2.284c-0.865,0.861-1.402,2.052-1.402,3.365c0,2.616,2.132,4.748,4.749,4.748
		c2.333,0,4.271-1.688,4.672-3.906c0.211,0.082,0.426,0.164,0.637,0.246c0.32,2.412,1.117,5.444,2.562,7.19
		c1.442-1.746,2.241-4.778,2.56-7.19c0.213-0.082,0.426-0.164,0.637-0.246c0.4,2.218,2.342,3.906,4.672,3.906
		c2.619,0,4.75-2.132,4.75-4.748c0-1.313-0.537-2.504-1.4-3.365c1.064-0.7,2.135-1.461,3.211-2.284v3.319H84.348z M77.787,57.146
		c1.189,0,2.152-0.965,2.152-2.15c0-0.832-0.473-1.549-1.162-1.908c0.369-0.213,0.738-0.434,1.105-0.66
		c0.744,0.609,1.221,1.533,1.221,2.568c0,1.828-1.486,3.316-3.316,3.316c-1.734,0-3.164-1.347-3.301-3.049
		c0.393-0.173,0.781-0.353,1.17-0.535c-0.012,0.088-0.018,0.176-0.018,0.268C75.639,56.182,76.602,57.146,77.787,57.146z
		 M69.92,52.436c-3.386-1.185-6.57-2.818-9.816-5.062c3.108-0.455,6.475-0.766,9.816-0.766c3.34,0,6.703,0.311,9.814,0.768
		C76.488,49.618,73.303,51.251,69.92,52.436z M62.051,57.146c1.188,0,2.151-0.965,2.151-2.15c0-0.092-0.009-0.18-0.019-0.268
		c0.389,0.184,0.777,0.362,1.17,0.535c-0.139,1.702-1.564,3.049-3.304,3.049c-1.827,0-3.313-1.488-3.313-3.316
		c0-1.035,0.477-1.959,1.221-2.568c0.367,0.227,0.734,0.447,1.104,0.66c-0.688,0.359-1.16,1.076-1.16,1.908
		C59.9,56.182,60.865,57.146,62.051,57.146z"/>
</g>
</svg>
